decode/vcd_file/221221_256bit_done.vcd
$date
	Wed Dec 21 16:23:48 2022
$end
$version
	GTKWave Analyzer v3.3.113 (w)1999-2022 BSI
$end
$timescale
	1ps
$end
$scope module TOP $end
$scope module decoder256 $end
$var wire 1 / decode_done $end
$var wire 1 ( decode_en $end
$var wire 48 5 llr_mem128(11)[47:0] $end
$var wire 48 4 llr_mem128(12)[47:0] $end
$var wire 8 X bit_mem128(1)(8)[7:0] $end
$var wire 24 P llr_mem4[23:0] $end
$var wire 48 H llr_mem64(0)[47:0] $end
$var wire 48 G llr_mem64(1)[47:0] $end
$var wire 8 &! bit_mem32(1)(0)[7:0] $end
$var wire 8 %! bit_mem32(1)(1)[7:0] $end
$var wire 1 ) mem_en $end
$var wire 8 -! bit_mem16(0)(1)[7:0] $end
$var wire 8 ,! bit_mem16(1)(0)[7:0] $end
$var wire 8 r bit_mem64(1)(6)[7:0] $end
$var wire 8 q bit_mem64(1)(7)[7:0] $end
$var wire 48 @ llr_mem128(0)[47:0] $end
$var wire 8 o bit_mem128(0)(1)[7:0] $end
$var wire 8 f bit_mem128(0)(10)[7:0] $end
$upscope $end
$var wire 128 0 bit_out[127:0] $end
$scope module decoder256 $end
$var wire 48 J llr_mem32(2)[47:0] $end
$var wire 48 I llr_mem32(3)[47:0] $end
$var wire 8 R bit_mem128(1)(14)[7:0] $end
$var wire 8 Q bit_mem128(1)(15)[7:0] $end
$var wire 8 ^ bit_mem128(1)(2)[7:0] $end
$var wire 8 Z bit_mem128(1)(6)[7:0] $end
$var wire 8 Y bit_mem128(1)(7)[7:0] $end
$var wire 8 v bit_mem64(1)(2)[7:0] $end
$var wire 8 u bit_mem64(1)(3)[7:0] $end
$var wire 8 W bit_mem128(1)(9)[7:0] $end
$var wire 8 .! bit_mem16(0)(0)[7:0] $end
$var wire 8 e bit_mem128(0)(11)[7:0] $end
$var wire 8 d bit_mem128(0)(12)[7:0] $end
$var wire 8 a bit_mem128(0)(15)[7:0] $end
$var wire 8 n bit_mem128(0)(2)[7:0] $end
$var wire 8 c bit_mem128(0)(13)[7:0] $end
$var wire 8 b bit_mem128(0)(14)[7:0] $end
$var wire 48 1 llr_mem128(15)[47:0] $end
$var wire 48 > llr_mem128(2)[47:0] $end
$var wire 48 = llr_mem128(3)[47:0] $end
$var wire 48 < llr_mem128(4)[47:0] $end
$var wire 48 ; llr_mem128(5)[47:0] $end
$var wire 48 : llr_mem128(6)[47:0] $end
$var wire 48 D llr_mem64(4)[47:0] $end
$var wire 48 C llr_mem64(5)[47:0] $end
$var wire 48 B llr_mem64(6)[47:0] $end
$var wire 8 *! bit_mem32(0)(0)[7:0] $end
$var wire 8 )! bit_mem32(0)(1)[7:0] $end
$scope module pu_inst $end
$scope module func_spc_inst $end
$var wire 96 . llr[95:0] $end
$upscope $end
$upscope $end
$var wire 48 F llr_mem64(2)[47:0] $end
$var wire 48 E llr_mem64(3)[47:0] $end
$var wire 8 $! bit_mem32(1)(2)[7:0] $end
$var wire 8 #! bit_mem32(1)(3)[7:0] $end
$var wire 48 ? llr_mem128(1)[47:0] $end
$var wire 48 6 llr_mem128(10)[47:0] $end
$var wire 48 9 llr_mem128(7)[47:0] $end
$var wire 48 8 llr_mem128(8)[47:0] $end
$var wire 8 | bit_mem64(0)(4)[7:0] $end
$var wire 8 { bit_mem64(0)(5)[7:0] $end
$var wire 8 \ bit_mem128(1)(4)[7:0] $end
$var wire 8 [ bit_mem128(1)(5)[7:0] $end
$var wire 48 L llr_mem32(0)[47:0] $end
$var wire 48 K llr_mem32(1)[47:0] $end
$var wire 8 k bit_mem128(0)(5)[7:0] $end
$var wire 8 j bit_mem128(0)(6)[7:0] $end
$var wire 8 i bit_mem128(0)(7)[7:0] $end
$var wire 8 h bit_mem128(0)(8)[7:0] $end
$var wire 8 z bit_mem64(0)(6)[7:0] $end
$var wire 8 y bit_mem64(0)(7)[7:0] $end
$var wire 4 2! bit_mem4(0)[3:0] $end
$var wire 4 1! bit_mem4(1)[3:0] $end
$var wire 8 V bit_mem128(1)(10)[7:0] $end
$var wire 8 U bit_mem128(1)(11)[7:0] $end
$var wire 48 M llr_mem16(1)[47:0] $end
$var wire 8 "! bit_mem64(0)(0)[7:0] $end
$var wire 8 !! bit_mem64(0)(1)[7:0] $end
$var wire 8 +! bit_mem16(1)(1)[7:0] $end
$var wire 8 x bit_mem64(1)(0)[7:0] $end
$var wire 8 w bit_mem64(1)(1)[7:0] $end
$upscope $end
$var wire 1 # rst_n $end
$var wire 1 $ work_en $end
$scope module decoder256 $end
$var wire 48 A llr_mem64(7)[47:0] $end
$var wire 48 O llr_mem8[47:0] $end
$var wire 8 g bit_mem128(0)(9)[7:0] $end
$var wire 8 ` bit_mem128(1)(0)[7:0] $end
$var wire 8 (! bit_mem32(0)(2)[7:0] $end
$var wire 8 '! bit_mem32(0)(3)[7:0] $end
$var wire 8 ] bit_mem128(1)(3)[7:0] $end
$var wire 8 , cnt_inst[7:0] $end
$var wire 4 ' cur_state[3:0] $end
$var wire 8 p bit_mem128(0)(0)[7:0] $end
$var wire 3 + decode_state[2:0] $end
$var wire 12 - inst[11:0] $end
$var wire 8 m bit_mem128(0)(3)[7:0] $end
$var wire 8 l bit_mem128(0)(4)[7:0] $end
$var wire 8 T bit_mem128(1)(12)[7:0] $end
$var wire 8 S bit_mem128(1)(13)[7:0] $end
$var wire 8 0! bit_mem8(0)[7:0] $end
$var wire 8 /! bit_mem8(1)[7:0] $end
$var wire 4 & next_state[3:0] $end
$var wire 1 % sw_en $end
$var wire 8 _ bit_mem128(1)(1)[7:0] $end
$upscope $end
$var wire 1 " clk $end
$var wire 96 * llr_in[95:0] $end
$scope module decoder256 $end
$var wire 8 t bit_mem64(1)(4)[7:0] $end
$var wire 8 s bit_mem64(1)(5)[7:0] $end
$var wire 8 ~ bit_mem64(0)(2)[7:0] $end
$var wire 8 } bit_mem64(0)(3)[7:0] $end
$var wire 48 7 llr_mem128(9)[47:0] $end
$var wire 48 N llr_mem16(0)[47:0] $end
$var wire 48 3 llr_mem128(13)[47:0] $end
$var wire 48 2 llr_mem128(14)[47:0] $end
$upscope $end
$upscope $end
$enddefinitions $end
#1
$dumpvars
b0 k
b0 l
b0 =
b0 2!
b0 j
b0 4
0/
0(
b0 d
b0 G
b0 @
b0 y
b0 h
b0 i
b0 a
b0 n
b0 z
b0 o
b0 x
b0 U
b0 V
b0 c
b0 1!
b0 b
b0 &!
b0 f
b0 +!
b0 "!
b0 M
b0 1
b0 >
b0 !!
b0 0
b0 )!
b0 (!
0$
b0 X
b0 w
0#
b0 <
b0 %!
b0 J
b0 `
b0 O
b0 A
b0 ;
b0 :
b0 g
b0 I
b0 m
b0 ,
b0 ]
b0 D
b0 '!
b0 C
0)
b0 R
b0 -
b0 p
b0 '
b0 B
b0 *!
b0 +
b0 Q
b0 K
b0 9
b0 _
b0 S
b0 P
b0 T
b0 5
b0 .
b0 -!
b0 ^
0%
b0 /!
b0 0!
b0 F
b0 E
b1 &
b0 Z
b0 N
b0 t
b0 *
b0 $!
1"
b0 #!
b0 ,!
b0 Y
b0 7
b0 ~
b0 s
b0 ?
b0 6
b0 }
b0 v
b0 e
b0 |
b0 H
b0 3
b0 2
b0 8
b0 r
b0 u
b0 L
b0 \
b0 W
b0 {
b0 [
b0 q
b0 .!
$end
#2
0"
#3
1"
b1 +
b1 '
#4
0"
#5
1"
#6
0"
#7
1"
#8
0"
#9
1"
#10
0"
#11
1"
#12
0"
#13
1"
#14
0"
#15
1"
#16
0"
#17
1"
#18
0"
#19
1"
#20
0"
#21
1"
1$
1#
1%
b10 &
#22
0"
#23
1"
0$
b10 '
0%
b11000000000101000110111111000010000100111101000010111110000101111011000100111010000101111101 *
#24
0"
#25
1"
b101000010111101111100111011000100111111000000000000000010000010111011111111111100111011000000 *
#26
0"
#27
1"
b100000010000100000011111111111001111000000010000100000010000000111100000011 *
#28
0"
#29
1"
b10110110000111111101001000000000000000000001111110000000000001000111111011000010000000000000 *
#30
0"
#31
1"
b1111101111010000101111010000101111111000101111101111101111010111001111001000011111111000000 *
#32
0"
#33
1"
b111100111001111111000010000010000001000010000010111010000101111011000011001001000010000110000011 *
#34
0"
#35
1"
b11111111000111000010000101111101000010000010111101000001000000000000111101000100110111000111 *
#36
0"
#37
1"
b111111111100000001000011111110000010111101000110111100000011000111111101000111111000111100000011 *
#38
0"
#39
1"
b10000111111100111010111100000100111110000111000110000001000101000000000101000101000111000100 *
#40
0"
#41
1"
b111100000001000100111111000101000001111101000001111010000101111110000101111011000110000010111011 *
#42
0"
#43
1"
b111101111111111011111100111110111100000000111100111100111010000101000000111000001000111110000011 *
#44
0"
#45
1"
b10111010000001000011000000111101000101111110000001000000000100111111000101000011000110000101 *
#46
0"
#47
1"
b111110110111100111100111111000111000100111110111100000100000001000010111010000010111111 *
#48
0"
#49
1"
b111010000011000011000011000000000100001000111111000100000100111011000000111110000101000101111100 *
#50
0"
#51
1"
b111110000010111001000100111000111001000100000001111101001000111101000111111101000000111110000100 *
#52
0"
#53
1"
b111101111101000001000110111110000101000110000001111110111110000011000100111010111100111101111001 *
#54
0"
#55
1"
b100 &
1%
#56
0"
#57
1"
0%
1(
1)
b111100001011 -
b100 '
#58
0"
#59
1"
b10 +
b11000000000101000110111111000010000100111101000010111110000101111011000100111010000101111101 .
#60
0"
#61
1"
b100 +
#62
0"
#63
1"
b101111111111101111110111011111100111101 1
b1 ,
b1 +
b111000001011 -
#64
0"
#65
1"
b101000010111101111100111011000100111111000000000000000010000010111011111111111100111011000000 .
b10 +
#66
0"
#67
1"
b100 +
#68
0"
#69
1"
b1 +
b110100001011 -
b10 ,
b10000011111100000000000000111110000001000000 2
#70
0"
#71
1"
b10 +
b100000010000100000011111111111001111000000010000100000010000000111100000011 .
#72
0"
#73
1"
b100 +
#74
0"
#75
1"
b1 +
b11 ,
b110000001011 -
b10111111000111000010000000111101 3
#76
0"
#77
1"
b10110110000111111101001000000000000000000001111110000000000001000111111011000010000000000000 .
b10 +
#78
0"
#79
1"
b100 +
#80
0"
#81
1"
b1 +
b111110111101000000000000000000000001111110000000 4
b101100001011 -
b100 ,
#82
0"
#83
1"
b10 +
b1111101111010000101111010000101111111000101111101111101111010111001111001000011111111000000 .
#84
0"
#85
1"
b100 +
#86
0"
#87
1"
b101 ,
b1 +
b101000001011 -
b111111111011111011111111000011000110111101000000 5
#88
0"
#89
1"
b111100111001111111000010000010000001000010000010111010000101111011000011001001000010000110000011 .
b10 +
#90
0"
#91
1"
b100 +
#92
0"
#93
1"
b1 +
b100100001011 -
b110 ,
b100111111000001000010111011111101000010000011 6
#94
0"
#95
1"
b11111111000111000010000101111101000010000010111101000001000000000000111101000100110111000111 .
b10 +
#96
0"
#97
1"
b100 +
#98
0"
#99
1"
b1 +
b100000001011 -
b111 ,
b111111000010111101000010111111000000111101111001 7
#100
0"
#101
1"
b111111111100000001000011111110000010111101000110111100000011000111111101000111111000111100000011 .
b10 +
#102
0"
#103
1"
b100 +
#104
0"
#105
1"
b1 +
b1000 ,
b11100001011 -
b1000001111110111101111101111101111001111101 8
#106
0"
#107
1"
b10000111111100111010111100000100111110000111000110000001000101000000000101000101000111000100 .
b10 +
#108
0"
#109
1"
b100 +
#110
0"
#111
1"
b1 +
b11000001011 -
b10000100111100111110000001000000000101000100 9
b1001 ,
#112
0"
#113
1"
b10 +
b111100000001000100111111000101000001111101000001111010000101111110000101111011000110000010111011 .
#114
0"
#115
1"
b100 +
#116
0"
#117
1"
b111111111111000001111111111011111110111011111110 :
b1 +
b1010 ,
b10100001011 -
#118
0"
#119
1"
b111101111111111011111100111110111100000000111100111100111010000101000000111000001000111110000011 .
b10 +
#120
0"
#121
1"
b100 +
#122
0"
#123
1"
b10000001011 -
b1000100000010000000000100000000111000111110 ;
b1 +
b1011 ,
#124
0"
#125
1"
b10 +
b10111010000001000011000000111101000101111110000001000000000100111111000101000011000110000101 .
#126
0"
#127
1"
b100 +
#128
0"
#129
1"
b1100 ,
b1100001011 -
b111110000001000000111110000000111111000011000101 <
b1 +
#130
0"
#131
1"
b10 +
b111110110111100111100111111000111000100111110111100000100000001000010111010000010111111 .
#132
0"
#133
1"
b100 +
#134
0"
#135
1"
b100000001000100000010000001111110111111 =
b1000001011 -
b1101 ,
b1 +
#136
0"
#137
1"
b10 +
b111010000011000011000011000000000100001000111111000100000100111011000000111110000101000101111100 .
#138
0"
#139
1"
b100 +
#140
0"
#141
1"
b1 +
b111101000011000000111111000100000000111110111100 >
b100001011 -
b1110 ,
#142
0"
#143
1"
b111110000010111001000100111000111001000100000001111101001000111101000111111101000000111110000100 .
b10 +
#144
0"
#145
1"
b100 +
#146
0"
#147
1"
b1 +
b1111 ,
b1011 -
b111110111100000111000001111101111101000000111110 ?
#148
0"
#149
1"
b10 +
b111101111101000001000110111110000101000110000001111110111110000011000100111010111100111101111001 .
#150
0"
#151
1"
b100 +
#152
0"
#153
1"
b1 +
b11000001111110000001000010000011000100000011 @
b111100001001 -
b10000 ,
#154
0"
#155
1"
b10 +
b101111111111101111110111011111100111101000010000011111100000000000000111110000001000000 .
#156
0"
#157
1"
b100 +
#158
0"
#159
1"
b1 +
b10001 ,
b1000010000011000010000000000000000000 A
b110100001001 -
#160
0"
#161
1"
b10 +
b10111111000111000010000000111101111110111101000000000000000000000001111110000000 .
#162
0"
#163
1"
b100 +
#164
0"
#165
1"
b1 +
b10010 ,
b101100001001 -
b111111000010000000000010000000000000000000 B
#166
0"
#167
1"
b111111111011111011111111000011000110111101000000000100111111000001000010111011111101000010000011 .
b10 +
#168
0"
#169
1"
b100 +
#170
0"
#171
1"
b1 +
b100100001001 -
b10011 ,
b1000001000011000000111111000001000011000010 C
#172
0"
#173
1"
b111111000010111101000010111111000000111101111001000001000001111110111101111101111101111001111101 .
b10 +
#174
0"
#175
1"
b100 +
#176
0"
#177
1"
b1 +
b10100 ,
b11100001001 -
b111111111110000000000011000001000010000011000011 D
#178
0"
#179
1"
b10000100111100111110000001000000000101000100111111111111000001111111111011111110111011111110 .
b10 +
#180
0"
#181
1"
b100 +
#182
0"
#183
1"
b1 +
b10100001001 -
b10101 ,
b10000010000000000100000001111111000010000010 E
#184
0"
#185
1"
b10 +
b1000100000010000000000100000000111000111110111110000001000000111110000000111111000011000101 .
#186
0"
#187
1"
b100 +
#188
0"
#189
1"
b1 +
b1100001001 -
b10110 ,
b1000000000000000010111111000000000000000011 F
#190
0"
#191
1"
b10 +
b100000001000100000010000001111110111111111101000011000000111111000100000000111110111100 .
#192
0"
#193
1"
b100 +
#194
0"
#195
1"
b1 +
b1000001000001111101000000000000000010 G
b10111 ,
b100001001 -
#196
0"
#197
1"
b10 +
b111110111100000111000001111101111101000000111110000011000001111110000001000010000011000100000011 .
#198
0"
#199
1"
b100 +
#200
0"
#201
1"
b1 +
b11110010111 -
b11000 ,
b10000001000011000000000001111111000010000011 H
#202
0"
#203
1"
b10 +
b1000010000011000010000000000000000000000000111111000010000000000010000000000000000000 .
#204
0"
#205
1"
b100 +
#206
0"
#207
1"
b1 +
b1000101000010000000111111000010000010000000 I
b11001 ,
b10110010111 -
#208
0"
#209
1"
b10 +
b1000001000011000000111111000001000011000010111111111110000000000011000001000010000011000011 .
#210
0"
#211
1"
b100 +
#212
0"
#213
1"
b1 +
b10000011000000000101111101000011000011000110 J
b1110010111 -
b11010 ,
#214
0"
#215
1"
b10000010000000000100000001111111000010000010000001000000000000000010111111000000000000000011 .
b10 +
#216
0"
#217
1"
b100 +
#218
0"
#219
1"
b1 +
b11011 ,
b110010111 -
b100000100000000000100000001000010111111000011 K
#220
0"
#221
1"
b10 +
b1000001000001111101000000000000000010000010000001000011000000000001111111000010000011 .
#222
0"
#223
1"
b100 +
#224
0"
#225
1"
b1 +
b1110010101 -
b11100 ,
b1000010111101000010000011000011000000000101 L
#226
0"
#227
1"
b1000101000010000000111111000010000010000000000010000011000000000101111101000011000011000110 .
b10 +
#228
0"
#229
1"
b100 +
#230
0"
#231
1"
b1 +
b110000010000001000010000101000101000000001001 M
b11101 ,
b110010101 -
#232
0"
#233
1"
b10 +
b100000100000000000100000001000010111111000011000001000010111101000010000011000011000000000101 .
#234
0"
#235
1"
b100 +
#236
0"
#237
1"
b100000011 -
b1 +
b11110 ,
b1000000100000011000010000011111111000110000101 N
#238
0"
#239
1"
b110000010000001000010000101000101000000001001001000000100000011000010000011111111000110000101 .
b10 +
#240
0"
#241
1"
b100 +
#242
0"
#243
1"
b1 +
b10000001000101000000000100000010111111000101 O
b11111 ,
b100001 -
#244
0"
#245
1"
b10 +
b10000001000101000000000100000010111111000101 .
#246
0"
#247
1"
b100 +
#248
0"
#249
1"
b100010011 -
b1 +
b100000 ,
#250
0"
#251
1"
b110000010000001000010000101000101000000001001001000000100000011000010000011111111000110000101 .
b10 +
#252
0"
#253
1"
b100 +
#254
0"
#255
1"
b1 +
b100001 ,
b1 -
b1000000011001010001001001100000101000010001011 O
#256
0"
#257
1"
b10 +
b1000000011001010001001001100000101000010001011 .
#258
0"
#259
1"
b100 +
#260
0"
#261
1"
b1 +
b101101 -
b11001001000101000010 P
b100010 ,
#262
0"
#263
1"
b11001001000101000010 .
b10 +
#264
0"
#265
1"
b100 +
#266
0"
#267
1"
b1 +
b100011 ,
b10001 -
#268
0"
#269
1"
b10 +
b1000000011001010001001001100000101000010001011 .
#270
0"
#271
1"
b100 +
#272
0"
#273
1"
b111100 -
b1 +
b100100 ,
b1011010011010001001101 P
#274
0"
#275
1"
b10 +
b1011010001010011001101 .
#276
0"
#277
1"
b100 +
#278
0"
#279
1"
b1 +
b100101 ,
b10100000 -
#280
0"
#281
1"
b1000000011001010001001001100000101000010001011 .
b10 +
#282
0"
#283
1"
b100 +
#284
0"
#285
1"
b1 +
b100110 ,
b10100010 -
#286
0"
#287
1"
b110000010000001000010000101000101000000001001001000000100000011000010000011111111000110000101 .
b10 +
#288
0"
#289
1"
b100 +
#290
0"
#291
1"
b1 +
b100111 ,
b111000100 -
#292
0"
#293
1"
b100000100000000000100000001000010111111000011000001000010111101000010000011000011000000000101 .
b10 +
#294
0"
#295
1"
b100 +
#296
0"
#297
1"
b1 +
b101000 ,
b111000111 -
#298
0"
#299
1"
b1000001000001111101000000000000000010000010000001000011000000000001111111000010000011 .
b10 +
#300
0"
#301
1"
b100 +
#302
0"
#303
1"
b1 +
b101001 ,
b1001111 -
#304
0"
#305
1"
b0 .
b10 +
#306
0"
#307
1"
b100 +
#308
0"
#309
1"
b1 +
b101010 ,
b111100011001 -
#310
0"
#311
1"
b101111111111101111110111011111100111101000010000011111100000000000000111110000001000000 .
b10 +
#312
0"
#313
1"
b100 +
#314
0"
#315
1"
b1 +
b101011 ,
b101111100111001111001000101111100111110000001 A
b110100011001 -
#316
0"
#317
1"
b10111111000111000010000000111101111110111101000000000000000000000001111110000000 .
b10 +
#318
0"
#319
1"
b100 +
#320
0"
#321
1"
b1001001111101111011000000000001111110 B
b1 +
b101100 ,
b101100011001 -
#322
0"
#323
1"
b10 +
b111111111011111011111111000011000110111101000000000100111111000001000010111011111101000010000011 .
#324
0"
#325
1"
b100 +
#326
0"
#327
1"
b100100011001 -
b111010111010001001111101000011000011111000000101 C
b1 +
b101101 ,
#328
0"
#329
1"
b10 +
b111111000010111101000010111111000000111101111001000001000001111110111101111101111101111001111101 .
#330
0"
#331
1"
b100 +
#332
0"
#333
1"
b101110 ,
b11100011001 -
b1111111111111110110000010111011111010110110 D
b1 +
#334
0"
#335
1"
b10 +
b10000100111100111110000001000000000101000100111111111111000001111111111011111110111011111110 .
#336
0"
#337
1"
b100 +
#338
0"
#339
1"
b10100011001 -
b110111010000001001001111110000000111001111001 E
b101111 ,
b1 +
#340
0"
#341
1"
b10 +
b1000100000010000000000100000000111000111110111110000001000000111110000000111111000011000101 .
#342
0"
#343
1"
b100 +
#344
0"
#345
1"
b1 +
b101000010000100110110111111111110111111001000 F
b1100011001 -
b110000 ,
#346
0"
#347
1"
b10 +
b100000001000100000010000001111110111111111101000011000000111111000100000000111110111100 .
#348
0"
#349
1"
b100 +
#350
0"
#351
1"
b1 +
b110001 ,
b100011001 -
b100000101000011111101000000111111000100111010 G
#352
0"
#353
1"
b10 +
b111110111100000111000001111101111101000000111110000011000001111110000001000010000011000100000011 .
#354
0"
#355
1"
b100 +
#356
0"
#357
1"
b1 +
b111010001000111010111110000100111111000101000111 H
b1001111 -
b110010 ,
#358
0"
#359
1"
b10 +
b0 .
#360
0"
#361
1"
b100 +
#362
0"
#363
1"
b1 +
b110011 ,
b11100000111 -
#364
0"
#365
1"
b10 +
b101111100111001111001000101111100111110000001000000000001001001111101111011000000000001111110 .
#366
0"
#367
1"
b100 +
#368
0"
#369
1"
b1 +
b10100000111 -
b110100 ,
b111100000111111100111111000000111101000000111111 I
#370
0"
#371
1"
b10 +
b111010111010001001111101000011000011111000000101000001111111111111110110000010111011111010110110 .
#372
0"
#373
1"
b100 +
#374
0"
#375
1"
b1 +
b110111101000011111011111111000001111110000110 J
b110101 ,
b1100000111 -
#376
0"
#377
1"
b10 +
b110111010000001001001111110000000111001111001000101000010000100110110111111111110111111001000 .
#378
0"
#379
1"
b100 +
#380
0"
#381
1"
b1 +
b100000111 -
b111010000001000000000111000010111100000001111111 K
b110110 ,
#382
0"
#383
1"
b100000101000011111101000000111111000100111010111010001000111010111110000100111111000101000111 .
b10 +
#384
0"
#385
1"
b100 +
#386
0"
#387
1"
b1 +
b1100000101 -
b100111101000000111100111010000010111111000101 L
b110111 ,
#388
0"
#389
1"
b111100000111111100111111000000111101000000111111000110111101000011111011111111000001111110000110 .
b10 +
#390
0"
#391
1"
b100 +
#392
0"
#393
1"
b1 +
b100000101 -
b111000 ,
b111100000001000000000000111101111101111111111110 M
#394
0"
#395
1"
b111010000001000000000111000010111100000001111111000100111101000000111100111010000010111111000101 .
b10 +
#396
0"
#397
1"
b100 +
#398
0"
#399
1"
b1 +
b111111000000111110111111111101000000111110111111 N
b100100011 -
b111001 ,
#400
0"
#401
1"
b10 +
b111100000001000000000000111101111101111111111110111111000000111110111111111101000000111110111111 .
#402
0"
#403
1"
b100 +
#404
0"
#405
1"
b1 +
b11111111 +!
b111010 ,
b11111 -
b11111111 ,!
#406
0"
#407
1"
b10 +
b0 .
#408
0"
#409
1"
b100 +
#410
0"
#411
1"
b1 +
b1100010101 -
b111011 ,
#412
0"
#413
1"
b111100000111111100111111000000111101000000111111000110111101000011111011111111000001111110000110 .
b10 +
#414
0"
#415
1"
b100 +
#416
0"
#417
1"
b1 +
b111100 ,
b1011000011111101111111110111111000000010001000 M
b100010101 -
#418
0"
#419
1"
b10 +
b111010000001000000000111000010111100000001111111000100111101000000111100111010000010111111000101 .
#420
0"
#421
1"
b100 +
#422
0"
#423
1"
b111000111111010111110111001111100001000000110 N
b11111 -
b111101 ,
b1 +
#424
0"
#425
1"
b10 +
b0 .
#426
0"
#427
1"
b100 +
#428
0"
#429
1"
b1 +
b100000011 -
b111110 ,
#430
0"
#431
1"
b1011000011111101111111110111111000000010001000000111000111111010111110111001111100001000000110 .
b10 +
#432
0"
#433
1"
b100 +
#434
0"
#435
1"
b1 +
b111111 ,
b11000001001000000010000111000010000100000110 O
b100001 -
#436
0"
#437
1"
b10 +
b11000001001000000010000111000010000100000110 .
#438
0"
#439
1"
b100 +
#440
0"
#441
1"
b1 +
b1000000 ,
b100010011 -
#442
0"
#443
1"
b10 +
b1011000011111101111111110111111000000010001000000111000111111010111110111001111100001000000110 .
#444
0"
#445
1"
b100 +
#446
0"
#447
1"
b1 +
b1000001 ,
b1 -
b1110111100101111001010001110111000110101001110 O
#448
0"
#449
1"
b10 +
b1110111100101111001010001110111000110101001110 .
#450
0"
#451
1"
b100 +
#452
0"
#453
1"
b1 +
b1000010 ,
b111100110110111000110101 P
b101101 -
#454
0"
#455
1"
b10 +
b111100110110111000110101 .
#456
0"
#457
1"
b100 +
#458
0"
#459
1"
b1 +
b1000011 ,
b1111 1!
b10001 -
#460
0"
#461
1"
b10 +
b1110111100101111001010001110111000110101001110 .
#462
0"
#463
1"
b100 +
#464
0"
#465
1"
b1 +
b111100 -
b1000100 ,
b101110011011101010011001 P
#466
0"
#467
1"
b10 +
b101110101010011011011001 .
#468
0"
#469
1"
b100 +
#470
0"
#471
1"
b1 +
b10100000 -
b1100 2!
b1000101 ,
#472
0"
#473
1"
b10 +
b1110111100101111001010001110111000110101001110 .
#474
0"
#475
1"
b100 +
#476
0"
#477
1"
b1 +
b1000110 ,
b110100010 -
b111100 0!
#478
0"
#479
1"
b10 +
b1011000011111101111111110111111000000010001000000111000111111010111110111001111100001000000110 .
#480
0"
#481
1"
b100 +
#482
0"
#483
1"
b1 +
b1000111 ,
b110100101 -
b111100 -!
b111100 .!
#484
0"
#485
1"
b10 +
b111010000001000000000111000010111100000001111111000100111101000000111100111010000010111111000101 .
#486
0"
#487
1"
b100 +
#488
0"
#489
1"
b1 +
b111100 &!
b111100 %!
b101111 -
b1001000 ,
b11000011 $!
b11000011 #!
#490
0"
#491
1"
b10 +
b0 .
#492
0"
#493
1"
b1011010 &!
b100 +
b10100101 #!
b1011010 $!
b10100101 %!
#494
0"
#495
1"
b1 +
b1001001 ,
b11100010111 -
#496
0"
#497
1"
b101111100111001111001000101111100111110000001000000000001001001111101111011000000000001111110 .
b10 +
#498
0"
#499
1"
b100 +
#500
0"
#501
1"
b1 +
b10100010111 -
b110111110010110111111111000001110100111011111101 I
b1001010 ,
#502
0"
#503
1"
b10 +
b111010111010001001111101000011000011111000000101000001111111111111110110000010111011111010110110 .
#504
0"
#505
1"
b100 +
#506
0"
#507
1"
b1001011 ,
b1100010111 -
b1 +
b110100110100000110001101111110110101111001110000 J
#508
0"
#509
1"
b110111010000001001001111110000000111001111001000101000010000100110110111111111110111111001000 .
b10 +
#510
0"
#511
1"
b100 +
#512
0"
#513
1"
b1 +
b1001100 ,
b100010111 -
b110100001010000010110010000111110010111101001001 K
#514
0"
#515
1"
b10 +
b100000101000011111101000000111111000100111010111010001000111010111110000100111111000101000111 .
#516
0"
#517
1"
b100 +
#518
0"
#519
1"
b1001111010111111110110001110111000111011001100 L
b1 +
b101111 -
b1001101 ,
#520
0"
#521
1"
b0 .
b10 +
#522
0"
#523
1"
b100 +
b111100 %!
b111100 &!
b11000011 $!
b11000011 #!
#524
0"
#525
1"
b1 +
b1001110 ,
b1100000101 -
#526
0"
#527
1"
b10 +
b110111110010110111111111000001110100111011111101110100110100000110001101111110110101111001110000 .
#528
0"
#529
1"
b100 +
#530
0"
#531
1"
b100000101 -
b1 +
b1001111 ,
b1001000001111111000011001100000110000010000111 M
#532
0"
#533
1"
b110100001010000010110010000111110010111101001001001001111010111111110110001110111000111011001100 .
b10 +
#534
0"
#535
1"
b100 +
#536
0"
#537
1"
b1 +
b110110111110111001111101111010000001111000111011 N
b1010000 ,
b100000011 -
#538
0"
#539
1"
b10 +
b1001000001111111000011001100000110000010000111110110111110111001111101111010000001111000111011 .
#540
0"
#541
1"
b100 +
#542
0"
#543
1"
b100001 -
b1111111000110000010000010000011111111000101 O
b1 +
b1010001 ,
#544
0"
#545
1"
b1111111000110000010000010000011111111000101 .
b10 +
#546
0"
#547
1"
b100 +
#548
0"
#549
1"
b1 +
b1010010 ,
b100010011 -
#550
0"
#551
1"
b10 +
b1001000001111111000011001100000110000010000111110110111110111001111101111010000001111000111011 .
#552
0"
#553
1"
b100 +
#554
0"
#555
1"
b1110000 -
b1010011 ,
b1 +
b1010000010010010001001110100110110111011110011 O
#556
0"
#557
1"
b1010110100010010111011000010110110001001110011 .
b10 +
#558
0"
#559
1"
b100 +
#560
0"
#561
1"
b1 +
b1010101 0!
b110100011 -
b1010100 ,
#562
0"
#563
1"
b10 +
b1001000001111111000011001100000110000010000111110110111110111001111101111010000001111000111011 .
#564
0"
#565
1"
b100 +
#566
0"
#567
1"
b1010101 +!
b1010101 ,
b1010101 ,!
b1 +
b11111 -
#568
0"
#569
1"
b0 .
b10 +
#570
0"
#571
1"
b100 +
b0 +!
b11111111 ,!
#572
0"
#573
1"
b1100010101 -
b1 +
b1010110 ,
#574
0"
#575
1"
b10 +
b110111110010110111111111000001110100111011111101110100110100000110001101111110110101111001110000 .
#576
0"
#577
1"
b100 +
#578
0"
#579
1"
b1010111 ,
b100010101 -
b101001110110110101111000101000010011110011101001 M
b1 +
#580
0"
#581
1"
b10 +
b110100001010000010110010000111110010111101001001001001111010111111110110001110111000111011001100 .
#582
0"
#583
1"
b100 +
#584
0"
#585
1"
b1 +
b11111 -
b1011000 ,
b10110110000101011001100110001110111101010010001 N
#586
0"
#587
1"
b0 .
b10 +
#588
0"
#589
1"
b100 +
b1010101 ,!
b1010101 +!
#590
0"
#591
1"
b1 +
b100110010 -
b1011001 ,
#592
0"
#593
1"
b10 +
b101001010110101000110001110101101011110011101010110110110000010011110111111000001100101001010001 .
#594
0"
#595
1"
b100 +
#596
0"
#597
1"
b1 +
b11011010 .!
b1011010 ,
b110100100 -
b10111111 -!
#598
0"
#599
1"
b10 +
b110100001010000010110010000111110010111101001001001001111010111111110110001110111000111011001100 .
#600
0"
#601
1"
b100 +
#602
0"
#603
1"
b1 +
b10111111 )!
b10001111 (!
b11101010 '!
b11011010 *!
b110100110 -
b1011011 ,
#604
0"
#605
1"
b100000101000011111101000000111111000100111010111010001000111010111110000100111111000101000111 .
b10 +
#606
0"
#607
1"
b100 +
#608
0"
#609
1"
b1 +
b101001 y
b1001100 z
b11011010 "!
b10111111 !!
b1011100 ,
b110101001 -
b10001111 ~
b11101010 }
b11100110 |
b10000011 {
#610
0"
#611
1"
b10 +
b111110111100000111000001111101111101000000111110000011000001111110000001000010000011000100000011 .
#612
0"
