decode/vcd_file/simx_01.vcd
$date
	Sat Dec 17 22:42:54 2022
$end
$version
	GTKWave Analyzer v3.3.113 (w)1999-2022 BSI
$end
$timescale
	1ps
$end
$scope module TOP $end
$scope module decoder256 $end
$var wire 48 8 llr_mem128(2)[47:0] $end
$var wire 48 7 llr_mem128(3)[47:0] $end
$var wire 1 " sw_en $end
$var wire 48 < llr_mem64(6)[47:0] $end
$var wire 48 ; llr_mem64(7)[47:0] $end
$var wire 48 F llr_mem32(0)[47:0] $end
$var wire 48 3 llr_mem128(7)[47:0] $end
$var wire 48 2 llr_mem128(8)[47:0] $end
$var wire 48 . llr_mem128(12)[47:0] $end
$var wire 48 - llr_mem128(13)[47:0] $end
$var wire 48 5 llr_mem128(4)[47:0] $end
$var wire 48 6 llr_mem128(5)[47:0] $end
$var wire 48 4 llr_mem128(6)[47:0] $end
$var wire 4 # next_state[3:0] $end
$var wire 96 ( llr_in_tmp[95:0] $end
$var wire 48 : llr_mem128(0)[47:0] $end
$var wire 12 & inst[11:0] $end
$var wire 12 ' inst_reg[11:0] $end
$var wire 48 ? llr_mem64(3)[47:0] $end
$var wire 48 > llr_mem64(4)[47:0] $end
$var wire 48 = llr_mem64(5)[47:0] $end
$var wire 48 1 llr_mem128(9)[47:0] $end
$var wire 48 H llr_mem16(0)[47:0] $end
$var wire 48 C llr_mem32(3)[47:0] $end
$var wire 48 B llr_mem64(0)[47:0] $end
$var wire 48 9 llr_mem128(1)[47:0] $end
$var wire 48 0 llr_mem128(10)[47:0] $end
$var wire 48 / llr_mem128(11)[47:0] $end
$var wire 8 % cnt_inst_185[7:0] $end
$var wire 4 $ cur_state[3:0] $end
$var wire 1 * decode_en $end
$var wire 48 A llr_mem64(1)[47:0] $end
$var wire 48 @ llr_mem64(2)[47:0] $end
$var wire 48 , llr_mem128(14)[47:0] $end
$var wire 48 + llr_mem128(15)[47:0] $end
$var wire 48 E llr_mem32(1)[47:0] $end
$var wire 48 D llr_mem32(2)[47:0] $end
$var wire 48 I llr_mem8[47:0] $end
$var wire 48 ) llr_out_tmp[47:0] $end
$var wire 48 G llr_mem16(1)[47:0] $end
$upscope $end
$upscope $end
$enddefinitions $end
#1
$dumpvars
0*
b0 1
b0 ?
b0 @
b0 <
b0 8
b0 7
b0 A
b0 2
b0 :
b0 D
b0 +
b0 &
b0 ,
b0 E
b0 .
b0 '
b0 5
b0 -
b0 )
b0 I
b0 ;
b0 =
b0 >
b0 G
b0 $
b0 4
b0 F
b0 H
0"
b0 B
b0 6
b0 C
b0 (
b0 3
b0 9
b0 0
b0 %
b1 #
b0 /
$end
#3
b1 $
#21
b10 #
1"
#23
0"
b10 $
#55
b111100001011 &
1"
b100 #
#57
b100 $
1*
b111100001011 '
b111110111110000001000101000000111100 )
0"
b111000001011 &
b1 %
b10001000000000111101000010000110111110111111111110111011111011000100000000111001000100 (
#59
b111001000000000001111100111101000010000101111110111010111111111101000000001011000011000101000101 (
b111000001011 '
b111110111110000001000101000000111100 +
b10 %
b111111111110111110000001000000000011000101 )
b110100001011 &
#61
b110000001011 &
b110100001011 '
b111111110111011000101111010000100111010111010000000111101001001111011000001111101000001000010 (
b111111111110111110000001000000000011000101 ,
b111110111011111100000110000000111011111111000001 )
b11 %
#63
b100 %
b1000011111111000001000011000010111101000110001010111111111010111001111110000011000110001000 (
b110000001011 '
b101100001011 &
b111110111011111100000110000000111011111111000001 -
b1111111000010111101111111000110111110000110 )
#65
b10000000111111000000000011000000111101111111 )
b101000001011 &
b111000111110000011000000000110111111000000111100111001111101000000111110000110111101111001000001 (
b101 %
b101100001011 '
b1111111000010111101111111000110111110000110 .
#67
b101000001011 '
b100100001011 &
b111111111100000010000000000000000001000001000001 )
b110 %
b1111110111100000110000010000010000001000000000010000000111110111111000001000011111111111110 (
b10000000111111000000000011000000111101111111 /
#69
b111 %
b100100001011 '
b10000001000000111111000100000011000000 )
b100000001011 &
b111001111011111110000001000011000000000100000110111111111011111100111101111011000100000000 (
b111111111100000010000000000000000001000001000001 0
#71
b1111101000000111110000000111111000000000010 )
b10000001000000111111000100000011000000 1
b100000001011 '
b1000 %
b101000001000011111100000000111110000010111101111100000000000001111001000011000000111110111011 (
b11100001011 &
#73
b11000001011 &
b11100001011 '
b1111101000000111110000000111111000000000010 2
b111101000010000000000000111110111100000000000011 )
b101111101111110111100000110000000000000111101111110000100000101111100000000111000111100111101 (
b1001 %
#75
b1010 %
b10100001011 &
b11000001011 '
b100111111000001000101000110111110000000111110111111111011111001111110111111000000111010111010 (
b111111000001111110000000000001000010000000000110 )
b111101000010000000000000111110111100000000000011 3
#77
b10000001011 &
b1011 %
b1111110111110000000111110000110111111 )
b111111000001111110000000000001000010000000000110 4
b111010000001000010111110000011111110000111000000000000111011000010000110000110000101111111 (
b10100001011 '
#79
b10000001011 '
b1100001011 &
b11000000000000111111000001000011000011000011000011000011000011000000111001111111000101000110 (
b1100 %
b1111110111110000000111110000110111111 6
b1000011000011000000000001000101 )
#81
b10111110111100000010000001111111 )
b1100001011 '
b1000011000011000000000001000101 5
b1000001011 &
b1101 %
b111001000000000101001001000010111011000010001000111100000010000010111100111111000011111111 (
#83
b111110000010000000000000000001111101111110111100111110111111111000000011000100000000111001000000 (
b1000001011 '
b10111110111100000010000001111111 7
b111110000000111111000010000001111101000000000000 )
b1110 %
b100001011 &
#85
b1011 &
b100000000000110110110111110111100000000111101111110000100111100111110000001001000000010000010 (
b111110000000111111000010000001111101000000000000 8
b100001011 '
b1111 %
b111010000010000000111110000010000001000010 )
#87
b11000000111111000101111010000000111101111011 )
b111100001001 &
b111011111101000000000000000001111101111011111001110111000110000000000101111001000011111001000101 (
b10000 %
b1011 '
b111010000010000000111110000010000001000010 9
#89
b110100001001 &
b11000000111111000101111010000000111101111011 :
b10000001000000000000000010000000000011 )
b111100001001 '
b10001 %
b111110111110000001000101000000111100000000111111111110111110000001000000000011000101 (
#91
b111110111011111100000110000000111011111111000001000001111111000010111101111111000110111110000110 (
b101100001001 &
b10000001000000000000000010000000000011 ;
b10010 %
b110100001001 '
b10111100000000111111111111111110111111111110 )
#93
b1000001000000000000000001 )
b100100001001 &
b10111100000000111111111111111110111111111110 <
b10000000111111000000000011000000111101111111111111111100000010000000000000000001000001000001 (
b101100001001 '
b10011 %
#95
b10100 %
b111111000000111111000000000000000000 )
b11100001001 &
b1000001000000000000000001 =
b100100001001 '
b10000001000000111111000100000011000000000001111101000000111110000000111111000000000010 (
#97
b111101000010000000000000111110111100000000000011111111000001111110000000000001000010000000000110 (
b10100001001 &
b111111000000111111000000000000000000 >
b111110000000000010000000111111000000000001000000 )
b10101 %
b11100001001 '
#99
b10100001001 '
b10000000111111000000000001000000000001 )
b1111110111110000000111110000110111111000000000000000001000011000011000000000001000101 (
b111110000000000010000000111111000000000001000000 ?
b1100001001 &
b10110 %
#101
b10111 %
b111110111110111111000000111111111111000000 )
b1100001001 '
b10000000111111000000000001000000000001 @
b10111110111100000010000001111111111110000000111111000010000001111101000000000000 (
b100001001 &
#103
b11110010111 &
b111110000001000000111111000000000011 )
b11000 %
b111110111110111111000000111111111111000000 A
b100001001 '
b111010000010000000111110000010000001000010000011000000111111000101111010000000111101111011 (
#105
b10000001000000000000000010000000000011000010111100000000111111111111111110111111111110 (
b10000001000010000011111110111111111101111101 )
b10110010111 &
b11001 %
b11110010111 '
b111110000001000000111111000000000011 B
#107
b1110010111 &
b1000001000000000000000001000000000000111111000000111111000000000000000000 (
b1000001000001000000111111111111000000 )
b10110010111 '
b11010 %
b10000001000010000011111110111111111101111101 C
#109
b111110000000000010000000111111000000000001000000000000000010000000111111000000000001000000000001 (
b1000001000001000000111111111111000000 D
b110010111 &
b11011 %
b111110000010111111000001000010111111000001000001 )
b1110010111 '
#111
b110010111 '
b111110000010111111000001000010111111000001000001 E
b111110111110111111000000111111111111000000000000000000111110000001000000111111000000000011 (
b111110111101111111111111000000111111111111000011 )
b1110010101 &
b11100 %
#113
b11101 %
b1110010101 '
b110010101 &
b10000001000010000011111110111111111101111101000000000001000001000001000000111111111111000000 (
b111110111101111111111111000000111111111111000011 F
b11000101111101111010000001000010111111111111 )
#115
b1000010111011111110111111000010 )
b11110 %
b100000011 &
b11000101111101111010000001000010111111111111 G
b110010101 '
b111110000010111111000001000010111111000001000001111110111101111111111111000000111111111111000011 (
#117
b11000101111101111010000001000010111111111111000000000000000000000000000000000000000000000000 (
b11000011000001000001000000000000000000000000 )
b100000011 '
b100001 &
b11111 %
b1000010111011111110111111000010 H
#119
b0 (
b100000 %
b100010011 &
b100001 '
b0 )
#121
b1000110111000011111110000000000011111001000001 )
b100010011 '
b1 &
b100001 %
b11000101111101111010000001000010111111111111000000000000000001000010111011111110111111000010 (
#123
b0 (
b100010 %
b101101 &
b1 '
b0 )
#125
b101101 '
b10001 &
b100011 %
#127
b100100 %
b111100 &
b10001 '
#129
b111100 '
b10100000 &
b100101 %
#131
b100110 %
b10100010 &
b10100000 '
#133
b10100010 '
b111000100 &
b100111 %
b11111001000001001000110111000011111110 )
b1000010111011111110111111000010000011000101111101111010000001000010111111111111 (
#135
b111110000010111111000001000010111111000001000001111110111101111111111111000000111111111111000011 (
b1000010111011111110111111000010 )
b101000 %
b111000111 &
b111000100 '
#137
b111000111 '
b111100011001 &
b101001 %
b111110111101111111111111000000111111111111000011 )
b111110111110111111000000111111111111000000000000000000111110000001000000111111000000000011 (
#139
b111110111110000001000101000000111100000000111111111110111110000001000000000011000101 (
b111100000110111100111111111100000001001000 )
b101010 %
b110100011001 &
b111100011001 '
#141
b110100011001 '
b101100011001 &
b101011 %
b111001000010111011000000000000111111000101000100 )
b111110111011111100000110000000111011111111000001000001111111000010111101111111000110111110000110 (
b111100000110111100111111111100000001001000 ;
#143
b111001000010111011000000000000111111000101000100 <
b10000000111111000000000011000000111101111111111111111100000010000000000000000001000001000001 (
b101100 %
b100100011001 &
b101100011001 '
b10111111000011111100111011000010000001000010 )
#145
b10000001000011000011111110111110111111000010 )
b100100011001 '
b101101 %
b10000001000000111111000100000011000000000001111101000000111110000000111111000000000010 (
b11100011001 &
b10111111000011111100111011000010000001000010 =
#147
b10000001000011000011111110111110111111000010 >
b10100011001 &
b11100011001 '
b111111000000111010000011000000111110000011000110 )
b111101000010000000000000111110111100000000000011111111000001111110000000000001000010000000000110 (
b101110 %
#149
b101111 %
b111111000000111010000011000000111110000011000110 ?
b1111110111110000000111110000110111111000000000000000001000011000011000000000001000101 (
b1100011001 &
b1111100111110000101000000000100000011000110 )
b10100011001 '
#151
b1100011001 '
b110000 %
b1111100111110000101000000000100000011000110 @
b111110000000111110000001111110000000 )
b100011001 &
b10111110111100000010000001111111111110000000111111000010000001111101000000000000 (
#153
b111010000010000000111110000010000001000010000011000000111111000101111010000000111101111011 (
b110001 %
b100011001 '
b111110000000111110000001111110000000 A
b11100000111 &
b111010000010000000000011000011000100111010111000 )
#155
b111100000001000001111110000000000000000100 )
b11100000111 '
b110010 %
b111100000110111100111111111100000001001000111001000010111011000000000000111111000101000100 (
b111010000010000000000011000011000100111010111000 B
b10100000111 &
#157
b1100000111 &
b10111111000011111100111011000010000001000010000010000001000011000011111110111110111111000010 (
b110011 %
b10100000111 '
b111111111101111110000001000001000011000010111111 )
b111100000001000001111110000000000000000100 C
#159
b111101000000000011111111111110000000000011 )
b1100000111 '
b111111111101111110000001000001000011000010111111 D
b110100 %
b111111000000111010000011000000111110000011000110000001111100111110000101000000000100000011000110 (
b100000111 &
#161
b1100000101 &
b111110000000111110000001111110000000111010000010000000000011000011000100111010111000 (
b110101 %
b100000111 '
b111111000000111110000000000011000110 )
b111101000000000011111111111110000000000011 E
#163
b1000000000000000001111111000001111111 )
b110110 %
b111100000001000001111110000000000000000100111111111101111110000001000001000011000010111111 (
b100000101 &
b1100000101 '
b111111000000111110000000000011000110 F
#165
b100100011 &
b110111 %
b1000000000000000000000000000011 )
b111101000000000011111111111110000000000011000000000000111111000000111110000000000011000110 (
b100000101 '
b1000000000000000001111111000001111111 G
#167
b1000000000000000000000000000011111001000001 )
b1100010101 &
b1000000000000000000000000000011 H
b111000 %
b100100011 '
b1000000000000000001111111000001111111000000000000000001000010111011111110111111000010 (
#169
b111100000001000001111110000000000000000100111111111101111110000001000001000011000010111111 (
b111100000010111110000100111100111111000100000001 )
b100010101 &
b1100010101 '
b111001 %
#171
b111010 %
b111101000011111111000011000000000001000010000011 )
b111100000010111110000100111100111111000100000001 G
b111101000000000011111111111110000000000011000000000000111111000000111110000000000011000110 (
b100010101 '
b100000011 &
#173
b100001 &
b111011 %
b111101000011111111000011000000000001000010000011 H
b111110111110000001000001000000000000000000000000 )
b100000011 '
b111100000010111110000100111100111111000100000001000000000000000001000000000000000000000000000011 (
#175
b0 (
b100010011 &
b111100 %
b100001 '
b0 )
#177
b111110000010111011000101000000000010000001000101 )
b1 &
b111100000010111110000100111100111111000100000001111101000011111111000011000000000001000010000011 (
b100010011 '
b111101 %
#179
b111110 %
b101101 &
b0 )
b1 '
b0 (
#181
b10001 &
b111111 %
b101101 '
#183
b10001 '
b111100 &
b1000000 %
#185
b1000001 %
b111100 '
b10100000 &
#187
b110100010 &
b1000010 %
b10100000 '
#189
b110100010 '
b110100101 &
b111100000010111110000100111100111111000100000001111101000011111111000011000000000001000010000011 (
b1000011 %
b111110000010111011000101000000000010000001000101 )
#191
b111101000011111111000011000000000001000010000011 )
b11100010111 &
b110100101 '
b1000100 %
b111101000000000011111111111110000000000011000000000000111111000000111110000000000011000110 (
#193
b111100000110111100111111111100000001001000111001000010111011000000000000111111000101000100 (
b10100010111 &
b111100000010111011001001111011111011111111001001 )
b1000101 %
b11100010111 '
#195
b10100010111 '
b1100010111 &
b111100000010111011001001111011111011111111001001 C
b10111111000011111100111011000010000001000010000010000001000011000011111110111110111111000010 (
b1000110 %
b111101111001000111000001111111000000000000000011 )
#197
b111111111101111110001001111101000011000100001001 )
b1100010111 '
b111101111001000111000001111111000000000000000011 D
b100010111 &
b1000111 %
b111111000000111010000011000000111110000011000110000001111100111110000101000000000100000011000110 (
#199
b111110000000111110000001111110000000111010000010000000000011000011000100111010111000 (
b111110111111111110111100000011000111110010 )
b111111111101111110001001111101000011000100001001 E
b100010111 '
b1001000 %
b1100000101 &
#201
b100000101 &
b111100000010111011001001111011111011111111001001111101111001000111000001111111000000000000000011 (
b111110111111111110111100000011000111110010 F
b111110111011000101111111000011000001000000000000 )
b1001001 %
b1100000101 '
#203
b100000101 '
b100000011 &
b111110111011000101111111000011000001000000000000 G
b111111111101111110001001111101000011000100001001000000111110111111111110111100000011000111110010 (
b1001010 %
b1111110111101000100000000000001111101111001 )
#205
b10111111000001000000111101111111000000000010 )
b100000011 '
b1111110111101000100000000000001111101111001 H
b100001 &
b1001011 %
b111110111011000101111111000011000001000000000000111101000011111111000011000000000001000010000011 (
#207
b0 (
b0 )
b100001 '
b1001100 %
b100010011 &
#209
b1110000 &
b111001000100000100000000111111000001000001110110 )
b111110111011000101111111000011000001000000000000000001111110111101000100000000000001111101111001 (
b1001101 %
b100010011 '
#211
b1110000 '
b0 )
b110100011 &
b1001110 %
b0 (
#213
b111110111011000101111111000011000001000000000000000001111110111101000100000000000001111101111001 (
b111001000100000100000000111111000001000001110110 )
b110100011 '
b1001111 %
b1100010101 &
#215
b100010101 &
b110001110000000001010111100111010000001000011 )
b111100000010111011001001111011111011111111001001111101111001000111000001111111000000000000000011 (
b1010000 %
b1100010101 '
#217
b100010101 '
b111100000111000000001101111110111101111111111001 )
b110001110000000001010111100111010000001000011 G
b100110010 &
b1010001 %
b111111111101111110001001111101000011000100001001000000111110111111111110111100000011000111110010 (
#219
b110001110000000001010111100111010000001000011000001111110111101000100000000000001111101111001 (
b100110010 '
b111100000111000000001101111110111101111111111001 H
b10100001010110110000100111111000001000001110110 )
b1010010 %
b110100100 &
#221
b110100110 &
b111111111101111110001001111101000011000100001001000000111110111111111110111100000011000111110010 (
b110100100 '
b1010011 %
b111100000111000000001101111110111101111111111001 )
#223
b111110111111111110111100000011000111110010 )
b111110000000111110000001111110000000111010000010000000000011000011000100111010111000 (
b110101001 &
b1010100 %
b110100110 '
#225
b110101001 '
b111010000010000000111110000010000001000010000011000000111111000101111010000000111101111011 (
b111010000010000000000011000011000100111010111000 )
b1010101 %
b111100011011 &
#227
b111000011011 &
b10001000000000111101000010000110111110111111111110111011111011000100000000111001000100 (
b111100011011 '
b1010110 %
b10001000111111000100111101110110000100111101 )
#229
b111001111101111111000011111001111101001110001010 )
b111001000000000001111100111101000010000101111110111010111111111101000000001011000011000101000101 (
b110100011011 &
b1010111 %
b10001000111111000100111101110110000100111101 +
b111000011011 '
#231
b110100011011 '
b111111110111011000101111010000100111010111010000000111101001001111011000001111101000001000010 (
b101000000111110110100111101000100111110000011 )
b110000011011 &
b1011000 %
b111001111101111111000011111001111101001110001010 ,
#233
b1000011111111000001000011000010111101000110001010111111111010111001111110000011000110001000 (
b110000011011 '
b1011001 %
b101000000111110110100111101000100111110000011 -
b101100011011 &
b100000000000101000011001001110011000001001110 )
#235
b110110000011000101111100110110111110000011111010 )
b111000111110000011000000000110111111000000111100111001111101000000111110000110111101111001000001 (
b100000000000101000011001001110011000001001110 .
b101000011011 &
b101100011011 '
b1011010 %
#237
b1011011 %
b1111110111100000110000010000010000001000000000010000000111110111111000001000011111111111110 (
b111111000010000100000001000010111101000100111101 )
b110110000011000101111100110110111110000011111010 /
b101000011011 '
b100100011011 &
#239
b100000011011 &
b111001111001000100000100000101110111111000000100 )
b111001111011111110000001000011000000000100000110111111111011111100111101111011000100000000 (
b1011100 %
b111111000010000100000001000010111101000100111101 0
b100100011011 '
#241
b100000011011 '
b1011101 %
b101000001000011111100000000111110000010111101111100000000000001111001000011000000111110111011 (
b11100011011 &
b110111111111110111111111100111010000011111001 )
b111001111001000100000100000101110111111000000100 1
#243
b10111010000110111101000010000001111000111001 )
b101111101111110111100000110000000000000111101111110000100000101111100000000111000111100111101 (
b11100011011 '
b110111111111110111111111100111010000011111001 2
b1011110 %
b11000011011 &
#245
b10100011011 &
b1011111 %
b11000011011 '
b11000110000100111110111010110111111111110100 )
b100111111000001000101000110111110000000111110111111111011111001111110111111000000111010111010 (
b10111010000110111101000010000001111000111001 3
#247
b111010000001000010111110000011111110000111000000000000111011000010000110000110000101111111 (
b10100011011 '
b10000011011 &
b1100000 %
b111010000011000001000101000000111101001100000100 )
b11000110000100111110111010110111111111110100 4
#249
b1100001 %
b10000011011 '
b11000000000000111111000001000011000011000011000011000011000011000000111001111111000101000110 (
b1100011011 &
b11111111000100000110000110000011111000001011 )
b111010000011000001000101000000111101001100000100 6
#251
b111001000000000101001001000010111011000010001000111100000010000010111100111111000011111111 (
b1100010 %
b1100011011 '
b111001000101001011111101000100000100111011000010 )
b1000011011 &
b11111111000100000110000110000011111000001011 5
#253
b1100011 %
b111001000101001011111101000100000100111011000010 7
b111110000010000000000000000001111101111110111100111110111111111000000011000100000000111001000000 (
b100011011 &
b1000011011 '
b111110111010111101111011000100111001 )
#255
b100111100111010111101000010111010001001000100 )
b111110111010111101111011000100111001 8
b1100100 %
b100011011 '
b100000000000110110110111110111100000000111101111110000100111100111110000001001000000010000010 (
b11011 &
#257
b111100001001 &
b100111100111010111101000010111010001001000100 9
b111000000000111110110100111101000101111100111110 )
b111011111101000000000000000001111101111011111001110111000110000000000101111001000011111001000101 (
b1100101 %
b11011 '
#259
b111100001001 '
b110100001001 &
b111000000000111110110100111101000101111100111110 :
b1100110 %
b10111111000011111101000011111111000011001010 )
b10001000111111000100111101110110000100111101111001111101111111000011111001111101001110001010 (
#261
b101000000111110110100111101000100111110000011000100000000000101000011001001110011000001001110 (
b101100001001 &
b110100001001 '
b10111111000011111101000011111111000011001010 ;
b10111101111110000000000011110111000001 )
b1100111 %
#263
b1101000 %
b101100001001 '
b100100001001 &
b110110000011000101111100110110111110000011111010111111000010000100000001000010111101000100111101 (
b111101111100000010111101111111000001111110111101 )
b10111101111110000000000011110111000001 <
#265
b11100001001 &
b111101111100000010111101111111000001111110111101 =
b100100001001 '
b1101001 %
b111000100111011111100111111000001000100111101 )
b111001111001000100000100000101110111111000000100000110111111111110111111111100111010000011111001 (
#267
b10111010000110111101000010000001111000111001000011000110000100111110111010110111111111110100 (
b11100001001 '
b10100001001 &
b111110111101000001000111000011111110000110000001 )
b1101010 %
b111000100111011111100111111000001000100111101 >
#269
b10100001001 '
b111010000011000001000101000000111101001100000100000011111111000100000110000110000011111000001011 (
b1101011 %
b111101000001000000000100111111000100000011111000 )
b111110111101000001000111000011111110000110000001 ?
b1100001001 &
#271
b100001001 &
b1100001001 '
b111011111101000100111110000000000010000011111100 )
b111001000101001011111101000100000100111011000010000000000000111110111010111101111011000100111001 (
b1101100 %
b111101000001000000000100111111000100000011111000 @
#273
b11100000111 &
b1101101 %
b111100000011111110000100000000000010111101000010 )
b100001001 '
b100111100111010111101000010111010001001000100111000000000111110110100111101000101111100111110 (
b111011111101000100111110000000000010000011111100 A
#275
b10111111000011111101000011111111000011001010000000000010111101111110000000000011110111000001 (
b1101110 %
b10100000111 &
b111100000011111110000100000000000010111101000010 B
b11100000111 '
b111111111101111111000011000000000010000000111111 )
#277
b11111110111111000010000100000100111111111101 )
b111111111101111111000011000000000010000000111111 C
b10100000111 '
b1101111 %
b111101111100000010111101111111000001111110111101000111000100111011111100111111000001000100111101 (
b1100000111 &
#279
b100000111 &
b10000001111110000001111111000000111111111101 )
b11111110111111000010000100000100111111111101 D
b111110111101000001000111000011111110000110000001111101000001000000000100111111000100000011111000 (
b1100000111 '
b1110000 %
#281
b1110001 %
b11111110000000111101111101111110000000111110 )
b1100000101 &
b10000001111110000001111111000000111111111101 E
b100000111 '
b111011111101000100111110000000000010000011111100111100000011111110000100000000000010111101000010 (
#283
b111111111101111111000011000000000010000000111111000011111110111111000010000100000100111111111101 (
b100000101 &
b1111111000000000000111110111111000100000001 )
b11111110000000111101111101111110000000111110 F
b1110010 %
b1100000101 '
#285
b100000101 '
b1111111000000000001111110000000000010000000 )
b10000001111110000001111111000000111111111101000011111110000000111101111101111110000000111110 (
b1111111000000000000111110111111000100000001 G
b100100011 &
b1110011 %
#287
b1110100 %
b1111111000000000000111110111111000100000001111100000111000000001101111110111101111111111001 (
b100100011 '
b111101000101000011001101111011111000 )
b1111111000000000001111110000000000010000000 H
b1100010101 &
#289
b100010101 &
b111100000010000010111111000001000001001000111100 )
b1100010101 '
b111111111101111111000011000000000010000000111111000011111110111111000010000100000100111111111101 (
b1110101 %
#291
b1110110 %
b10000001111110000001111111000000111111111101000011111110000000111101111101111110000000111110 (
b100010101 '
b111100000010000010111111000001000001001000111100 G
b11111111111111111100000001111101111011111110 )
b100000011 &
#293
b1100001 &
b111110111111000001111100111111000000000000000000 )
b1110111 %
b100000011 '
b111100000010000010111111000001000001001000111100000001111111000000000001111110000000000010000000 (
b11111111111111111100000001111101111011111110 H
#295
b1100001 '
b1111000 %
b0 )
b100010011 &
b0 (
#297
b111100000010000010111111000001000001001000111100000011111111111111111100000001111101111011111110 (
b111110000001000010000100000010111011111110111001 )
b1111001 %
b100010011 '
b110000 &
#299
b110100010 &
b1111010 %
b0 )
b0 (
b110000 '
#301
b110100010 '
b111110000001000010000100000010111011111110111001 )
b1111011 %
b110100101 &
b111100000010000010111111000001000001001000111100000011111111111111111100000001111101111011111110 (
#303
b10000001111110000001111111000000111111111101000011111110000000111101111101111110000000111110 (
b1111100 %
b11111111111111111100000001111101111011111110 )
b110100101 '
b11100010111 &
#305
b10100010111 &
b111101111010111100000111000010000001000011001010 )
b1111101 %
b10111111000011111101000011111111000011001010000000000010111101111110000000000011110111000001 (
b11100010111 '
#307
b10100010111 '
b1111110 %
b111001111011000010111011001011110111000010111001 )
b1100010111 &
b111101111100000010111101111111000001111110111101000111000100111011111100111111000001000100111101 (
b111101111010111100000111000010000001000011001010 C
#309
b111011001000000001000111000100000100000011111011 )
b1111111 %
b1100010111 '
b111110111101000001000111000011111110000110000001111101000001000000000100111111000100000011111000 (
b100010111 &
b111001111011000010111011001011110111000010111001 D
#311
b10000000 %
b111000111010000010111111111111000010000010000101 )
b1100000100 &
b111011111101000100111110000000000010000011111100111100000011111110000100000000000010111101000010 (
b100010111 '
b111011001000000001000111000100000100000011111011 E
#313
b10000001 %
b111000111010000010111111111111000010000010000101 F
b1100000100 '
b100000100 &
b11111100000001000011000101111110110111111110 )
b111101111010111100000111000010000001000011001010111001111011000010111011001011110111000010111001 (
#315
b111011001000000001000111000100000100000011111011111000111010000010111111111111000010000010000101 (
b10000010 %
b11111100000001000011000101111110110111111110 G
b111011000001000100111101000110111111111111000010 )
b100000100 '
b100000010 &
#317
b0 &
b10000011 %
b11111100000001000011000101111110110111111110000011111111111111111100000001111101111011111110 (
b111011000001000100111101000110111111111111000010 H
b100000010 '
b111101000001111110000010111111000001111111000010 )
#319
b0 )
b0 (
b10000100 %
b101101 &
b0 '
#321
b101101 '
b10000101 %
b10001 &
#323
b111100 &
b10001 '
b10000110 %
#325
b10000111 %
b10100001 &
b111100 '
#327
b10100001 '
b10001000 %
b100010011 &
#329
b110000 &
b100010011 '
b11111100000001000011000101111110110111111110111011000001000100111101000110111111111111000010 (
b111111000100000011110101111100000001000101000001 )
b10001001 %
#331
b10001010 %
b0 (
b110000 '
b110100011 &
b0 )
#333
b111111000100000011110101111100000001000101000001 )
b110100011 '
b11111100000001000011000101111110110111111110111011000001000100111101000110111111111111000010 (
b10001011 %
b1100010101 &
#335
b100010101 &
b111101111010111100000111000010000001000011001010111001111011000010111011001011110111000010111001 (
b1100010101 '
b110111000011000011001101110100111101000010111011 )
b10001100 %
#337
b10001101 %
b100010101 '
b111011001000000001000111000100000100000011111011111000111010000010111111111111000010000010000101 (
b100110010 &
b11001000001000111110110010000001000001000111 )
b110111000011000011001101110100111101000010111011 G
#339
b110111000011000011001101110100111101000010111011111011000001000100111101000110111111111111000010 (
b100110010 '
b10001110 %
b111010010000110001111101111100000001000101000001 )
b110100100 &
b11001000001000111110110010000001000001000111 H
#341
b110100100 '
b111011001000000001000111000100000100000011111011111000111010000010111111111111000010000010000101 (
b110100111 &
b10001111 %
b11001000001000111110110010000001000001000111 )
#343
b111000111010000010111111111111000010000010000101 )
b110100111 '
b10010000 %
b111011111101000100111110000000000010000011111100111100000011111110000100000000000010111101000010 (
b111100011001 &
#345
b110100011001 &
b1010000011110011000001110110000010110110011000 )
b10001000111111000100111101110110000100111101111001111101111111000011111001111101001110001010 (
b111100011001 '
b10010001 %
#347
b10010010 %
b101100011001 &
b110100011001 '
b101110110000111000001000100001000101010001101 )
b101000000111110110100111101000100111110000011000100000000000101000011001001110011000001001110 (
b1010000011110011000001110110000010110110011000 ;
#349
b10010011 %
b101110110000111000001000100001000101010001101 <
b110110000011000101111100110110111110000011111010111111000010000100000001000010111101000100111101 (
b100100011001 &
b111001000001110100111101000011111101111111000001 )
b101100011001 '
#351
b100100011001 '
b10010100 %
b111001000001110100111101000011111101111111000001 =
b110010000000110010111100000101111101111110110110 )
b11100011001 &
b111001111001000100000100000101110111111000000100000110111111111110111111111100111010000011111001 (
#353
b10111010000110111101000010000001111000111001000011000110000100111110111010110111111111110100 (
b10010101 %
b11100011001 '
b110010000000110010111100000101111101111110110110 >
b10100011001 &
b111100000011000011110001001001000010110001110011 )
#355
b111101000110111101010000000010001010001001000011 )
b10100011001 '
b10010110 %
b111010000011000001000101000000111101001100000100000011111111000100000110000110000011111000001011 (
b1100011001 &
b111100000011000011110001001001000010110001110011 ?
#357
b10010111 %
b111101000110111101010000000010001010001001000011 @
b1100011001 '
b111110001000001000111101000000111000111000111101 )
b100011001 &
b111001000101001011111101000100000100111011000010000000000000111110111010111101111011000100111001 (
#359
b100111100111010111101000010111010001001000100111000000000111110110100111101000101111100111110 (
b100011001 '
b10011000 %
b11100000111 &
b110111111100001101111000110010000010111010 )
b111110001000001000111101000000111000111000111101 A
#361
b11100000111 '
b1010000011110011000001110110000010110110011000000101110110000111000001000100001000101010001101 (
b11111111111110110110111011000001000100110011 )
b10100000111 &
b10011001 %
b110111111100001101111000110010000010111010 B
#363
b10100000111 '
b11111111111110110110111011000001000100110011 C
b10011010 %
b111111000011111101111111000000000100111101000010 )
b111001000001110100111101000011111101111111000001110010000000110010111100000101111101111110110110 (
b1100000111 &
#365
b100000111 &
b1100000111 '
b111111000011111101111111000000000100111101000010 D
b111100000011000011110001001001000010110001110011111101000110111101010000000010001010001001000011 (
b10011011 %
b111101111101000010001101111101111101000010000011 )
#367
b111110111101000000000011000000111100001000111110 )
b100000111 '
b1100000101 &
b111101111101000010001101111101111101000010000011 E
b10011100 %
b111110001000001000111101000000111000111000111101000000110111111100001101111000110010000010111010 (
#369
b11111111111110110110111011000001000100110011111111000011111101111111000000000100111101000010 (
b100000101 &
b1100000101 '
b111111000010111111111100111111000001000000111110 )
b10011101 %
b111110111101000000000011000000111100001000111110 F
#371
b100000101 '
b100000011 &
b111101111101000010001101111101111101000010000011111110111101000000000011000000111100001000111110 (
b111111000010111111111100111111000001000000111110 G
b10011110 %
b11000010000011000010000010000000000000111110 )
#373
b111111000001111111000000000011111110111111000001 )
b111111000010111111111100111111000001000000111110000011001000001000111110110010000001000001000111 (
b1 &
b100000011 '
b11000010000011000010000010000000000000111110 H
b10011111 %
#375
b10100000 %
b1 '
b101101 &
b0 (
b0 )
#377
b10001 &
b101101 '
b10100001 %
#379
b10100010 %
b10001 '
b111100 &
#381
b10100001 &
b111100 '
b10100011 %
#383
b10100100 %
b10100001 '
b100010011 &
#385
b110000 &
b100010011 '
b10100101 %
b1111011000000111110000101000101000010111110 )
b111111000010111111111100111111000001000000111110000011000010000011000010000010000000000000111110 (
